unit,"tag_opc","tag_dcs"
TAA1,"EWS102/10DAS0B:AI1B022601.PNT","AI1B022601_PNT"
TAA1,"EWS102/10DAS0B:RT1B023501.PNT","RT1B023501_PNT"
TAA1,"EWS102/10DAS0B:RT1B023601.PNT","RT1B023601_PNT"
TAA1,"EWS102/10DAS0B:TC1B023102.PNT","TC1B023102_PNT"
TAA1,"EWS102/10DAS0B:TC1B023103.PNT","TC1B023103_PNT"
TAA1,"EWS102/10DAS0B:TC1B023202.PNT","TC1B023202_PNT"
TAA1,"EWS102/10DAS0B:ZT1B020706.PNT","ZT1B020706_PNT"
TAA1,"EWS102/10DAS0B:ZT1B021105.PNT","ZT1B021105_PNT"
TAA1,"EWS102/10DAS0B:ZT1B021206.PNT","ZT1B021206_PNT"
TAA1,"EWS102/10DAS0B:ZT1B021307.PNT","ZT1B021307_PNT"
TAA1,"EWS102/10DAS0B:ZT1B021406.PNT","ZT1B021406_PNT"
TAA1,"EWS102/10DAS0B:ZT1B021606.PNT","ZT1B021606_PNT"
TAA1,"EWS102/10DAS0D:RT1D012706.PNT","RT1D012706_PNT"
TAA1,"EWS102/10DAS0D:RT1D026404.PNT","RT1D026404_PNT"
TAA1,"EWS102/10DAS0D:RT1D026501.PNT","RT1D026501_PNT"
TAA1,"EWS102/10DAS0D:TC1D027201.PNT","TC1D027201_PNT"
TAA1,"EWS102/10DAS0E:RT1E032706.PNT","RT1E032706_PNT"
TAA1,"EWS102/10DAS0E:RT1E046504.PNT","RT1E046504_PNT"
TAA1,"EWS102/10DAS0E:RT1E046506.PNT","RT1E046506_PNT"
TAA1,"EWS102/10DAS0E:RT1E046601.PNT","RT1E046601_PNT"
TAA1,"EWS102/10DAS0E:TC1E047104.PNT","TC1E047104_PNT"
TAA1,"EWS102/10DISP:OXY.PNT","DISP1OXY_PNT"
TAA1,"EWS102/10DISP:STEAMFLOWB.PNT","DISP1STEAMFLOWB_PNT"
TAA1,"EWS102/10MFLOW:AIN1.PNT","MFLOW1AIN1_PNT"
TAA1,"EWS102/10MFLOW:AIN10.PNT","MFLOW1AIN10_PNT"
TAA1,"EWS102/10MFLOW:AIN11.PNT","MFLOW1AIN11_PNT"
TAA1,"EWS102/10MFLOW:AIN12.PNT","MFLOW1AIN12_PNT"
TAA1,"EWS102/10MFLOW:AIN2.PNT","MFLOW1AIN2_PNT"
TAA1,"EWS102/10MFLOW:AIN3.PNT","MFLOW1AIN3_PNT"
TAA1,"EWS102/10MFLOW:AIN4.PNT","MFLOW1AIN4_PNT"
TAA1,"EWS102/10MFLOW:AIN5.PNT","MFLOW1AIN5_PNT"
TAA1,"EWS102/10MFLOW:AIN6.PNT","MFLOW1AIN6_PNT"
TAA1,"EWS102/10MFLOW:AIN7.PNT","MFLOW1AIN7_PNT"
TAA1,"EWS102/10MFLOW:AIN8.PNT","MFLOW1AIN8_PNT"
TAA1,"EWS102/10MFLOW:AIN9.PNT","MFLOW1AIN9_PNT"
